<svg xmlns="http://www.w3.org/2000/svg" width="140" height="33" viewBox="0 0 140 33">
  <g fill="none" fill-rule="evenodd">
    <path fill="#F75D34" d="M33.3498233 16.4766784C33.3498233 24.6858657 27.4028269 31.5190813 19.5784452 32.8833922L17.7710247 22.6219081C20.6978799 22.1088339 22.9367491 19.5434629 22.9367491 16.4650177 22.9367491 13.3865724 20.7095406 10.8212014 17.7710247 10.3081272L19.5784452.0466431095C27.4028269 1.43427562 33.3498233 8.26749117 33.3498233 16.4766784zM15.5787986 22.5519435L13.7713781 32.8134276C5.94699647 31.4374558 0 24.6159011 0 16.4067138 0 8.1975265 5.94699647 1.36431095 13.7713781 0L15.5787986 10.2614841C12.6519435 10.7745583 10.4130742 13.3399293 10.4130742 16.4183746 10.424735 19.4734982 12.6519435 22.0388693 15.5787986 22.5519435z"/>
    <path fill="#24282C" d="M37.5127208,16.4650177 C37.5127208,11.7540636 41.0109541,8.15088339 45.8385159,8.15088339 C48.7420495,8.15088339 51.2957597,9.59681979 52.695053,11.8590106 L49.5349823,13.6897527 C48.8236749,12.4537102 47.459364,11.7190813 45.8385159,11.7190813 C43.004947,11.7190813 41.1742049,13.619788 41.1742049,16.4766784 C41.1742049,19.3335689 43.004947,21.2342756 45.8385159,21.2342756 C47.459364,21.2342756 48.8586572,20.4996466 49.5349823,19.2636042 L52.695053,21.0943463 C51.3190813,23.3565371 48.765371,24.8024735 45.8385159,24.8024735 C41.0109541,24.7908127 37.5127208,21.1759717 37.5127208,16.4650177 Z"/>
    <path fill="#24282C" fill-rule="nonzero" d="M65.8484099,12.3137809 L65.8484099,24.8141343 L62.3035336,24.8141343 L62.3035336,23.3565371 C61.5222615,24.254417 60.3678445,24.8024735 58.7819788,24.8024735 C55.6918728,24.8024735 53.1381625,22.0855124 53.1381625,18.5639576 C53.1381625,15.0424028 55.6918728,12.3254417 58.7819788,12.3254417 C60.3678445,12.3254417 61.5222615,12.8734982 62.3035336,13.7713781 L62.3035336,12.3254417 L65.8484099,12.3254417 L65.8484099,12.3137809 Z M62.3035336,18.5522968 C62.3035336,16.7798587 61.1257951,15.6720848 59.4932862,15.6720848 C57.8607774,15.6720848 56.6830389,16.7798587 56.6830389,18.5522968 C56.6830389,20.324735 57.8607774,21.4325088 59.4932862,21.4325088 C61.1257951,21.4325088 62.3035336,20.324735 62.3035336,18.5522968 Z"/>
    <path fill="#24282C" d="M73.8826855,12.3137809 L73.8826855,16.3600707 C72.4017668,16.1268551 70.3028269,16.7215548 70.3028269,19.0770318 L70.3028269,24.8024735 L66.7229682,24.8024735 L66.7229682,12.3137809 L70.3144876,12.3137809 L70.3144876,14.669258 C70.7925795,13.0717314 72.390106,12.3137809 73.8826855,12.3137809 Z"/>
    <path fill="#24282C" fill-rule="nonzero" d="M89.5314488 16.4766784C89.5314488 21.1876325 86.0332155 24.8024735 81.4388693 24.8024735L74.7689046 24.8024735 74.7689046 8.15088339 81.4388693 8.15088339C86.0332155 8.15088339 89.5314488 11.7657244 89.5314488 16.4766784zM85.8699647 16.4766784C85.8699647 13.619788 84.0625442 11.8123675 81.4388693 11.8123675L78.5819788 11.8123675 78.5819788 21.1409894 81.4388693 21.1409894C84.0508834 21.1409894 85.8699647 19.3335689 85.8699647 16.4766784zM96.5628975 21.6190813C97.530742 21.6190813 98.3586572 21.2459364 98.8367491 20.7212014L101.670318 22.3537102C100.515901 23.9628975 98.7667845 24.7908127 96.5162544 24.7908127 92.4816254 24.7908127 89.9745583 22.0738516 89.9745583 18.5522968 89.9745583 15.030742 92.5282686 12.3137809 96.2597173 12.3137809 99.7113074 12.3137809 102.265018 14.9840989 102.265018 18.5522968 102.265018 19.0537102 102.218375 19.5201413 102.125088 19.9749117L93.7409894 19.9749117C94.1724382 21.1992933 95.2685512 21.6190813 96.5628975 21.6190813zM98.7434629 17.3162544C98.370318 15.9519435 97.2975265 15.45053 96.2363958 15.45053 94.8954064 15.45053 93.9858657 16.1151943 93.659364 17.3162544L98.7434629 17.3162544z"/>
    <polygon fill="#24282C" points="110.229 24.814 106.568 19.765 106.568 24.814 103.14 24.814 103.14 8.151 106.568 8.151 106.568 17.316 109.996 12.314 113.996 12.314 109.833 18.366 114.101 24.802 110.229 24.802"/>
    <path fill="#24282C" d="M125.971378,17.0480565 L125.971378,24.8141343 L122.54311,24.8141343 L122.54311,17.54947 C122.54311,16.1268551 121.65689,15.4738516 120.560777,15.4738516 C119.301413,15.4738516 118.438516,16.2084806 118.438516,17.8293286 L118.438516,24.8141343 L115.010247,24.8141343 L115.010247,8.15088339 L118.438516,8.15088339 L118.438516,13.7130742 C119.056537,12.8618375 120.199293,12.3137809 121.703534,12.3137809 C124.012367,12.3137809 125.971378,13.9579505 125.971378,17.0480565 Z"/>
    <path fill="#24282C" fill-rule="nonzero" d="M126.857597,18.5522968 C126.857597,15.030742 129.644523,12.3137809 133.119435,12.3137809 C136.594346,12.3137809 139.381272,15.030742 139.381272,18.5522968 C139.381272,22.0738516 136.594346,24.7908127 133.119435,24.7908127 C129.644523,24.7908127 126.857597,22.0738516 126.857597,18.5522968 Z M135.836396,18.5522968 C135.836396,16.8731449 134.658657,15.765371 133.119435,15.765371 C131.580212,15.765371 130.402473,16.8731449 130.402473,18.5522968 C130.402473,20.2314488 131.580212,21.3392226 133.119435,21.3392226 C134.658657,21.3392226 135.836396,20.2314488 135.836396,18.5522968 Z"/>
  </g>
</svg>
